{
  "type": "FeatureCollection",
  "generator": "overpass-turbo",
  "copyright": "The data included in this document is from www.openstreetmap.org. The data is made available under ODbL.",
  "timestamp": "2017-02-07T15:33:03Z",
  "features": [
    {
      "type": "Feature",
      "id": "node/254920246",
      "properties": {
        "@id": "node/254920246",
        "amenity": "hospital",
        "created_by": "Potlatch 0.8a",
        "name": "Centro de Salud de Barajas"
      },
      "geometry": {
        "type": "Point",
        "coordinates": [
          -3.5819254,
          40.4716064
        ]
      }
    },
    {
      "type": "Feature",
      "id": "node/306497542",
      "properties": {
        "@id": "node/306497542",
        "amenity": "hospital",
        "emergency": "no",
        "name": "Sanatorio Esquerdo"
      },
      "geometry": {
        "type": "Point",
        "coordinates": [
          -3.759755,
          40.3815448
        ]
      }
    },
    {
      "type": "Feature",
      "id": "node/418882735",
      "properties": {
        "@id": "node/418882735",
        "amenity": "hospital",
        "name": "Ruber Internacional"
      },
      "geometry": {
        "type": "Point",
        "coordinates": [
          -3.7156311,
          40.4896271
        ]
      }
    },
    {
      "type": "Feature",
      "id": "node/597375537",
      "properties": {
        "@id": "node/597375537",
        "amenity": "hospital",
        "name": "centro de especialidades Emigrantes"
      },
      "geometry": {
        "type": "Point",
        "coordinates": [
          -3.6364048,
          40.4685882
        ]
      }
    },
    {
      "type": "Feature",
      "id": "node/601623889",
      "properties": {
        "@id": "node/601623889",
        "amenity": "hospital",
        "name": "Centro de Salud de Alameda de Osuna"
      },
      "geometry": {
        "type": "Point",
        "coordinates": [
          -3.5865399,
          40.4551907
        ]
      }
    },
    {
      "type": "Feature",
      "id": "node/616223396",
      "properties": {
        "@id": "node/616223396",
        "amenity": "hospital",
        "name": "Clínica Universal",
        "url": "http://www.elseguromedico.es/hospitales-grupo-cisne.html"
      },
      "geometry": {
        "type": "Point",
        "coordinates": [
          -3.6948081,
          40.4329668
        ]
      }
    },
    {
      "type": "Feature",
      "id": "node/616753867",
      "properties": {
        "@id": "node/616753867",
        "addr:housenumber": "180",
        "addr:street": "Calle de Toledo",
        "amenity": "hospital",
        "name": "Centro de Salud Paseo Imperial"
      },
      "geometry": {
        "type": "Point",
        "coordinates": [
          -3.7144315,
          40.4016643
        ]
      }
    },
    {
      "type": "Feature",
      "id": "node/617052728",
      "properties": {
        "@id": "node/617052728",
        "addr:housenumber": "52",
        "addr:street": "Ronda de Segovia",
        "amenity": "hospital",
        "name": "Centro de Salud Pontones"
      },
      "geometry": {
        "type": "Point",
        "coordinates": [
          -3.7127489,
          40.4068044
        ]
      }
    },
    {
      "type": "Feature",
      "id": "node/1437313175",
      "properties": {
        "@id": "node/1437313175",
        "amenity": "hospital"
      },
      "geometry": {
        "type": "Point",
        "coordinates": [
          -3.7456727,
          40.3880739
        ]
      }
    },
    {
      "type": "Feature",
      "id": "node/1595009310",
      "properties": {
        "@id": "node/1595009310",
        "amenity": "hospital"
      },
      "geometry": {
        "type": "Point",
        "coordinates": [
          -3.6162018,
          40.4267074
        ]
      }
    },
    {
      "type": "Feature",
      "id": "node/1595068136",
      "properties": {
        "@id": "node/1595068136",
        "amenity": "hospital"
      },
      "geometry": {
        "type": "Point",
        "coordinates": [
          -3.5832106,
          40.4514854
        ]
      }
    },
    {
      "type": "Feature",
      "id": "node/2320596216",
      "properties": {
        "@id": "node/2320596216",
        "amenity": "hospital"
      },
      "geometry": {
        "type": "Point",
        "coordinates": [
          -3.750848,
          40.4123734
        ]
      }
    },
    {
      "type": "Feature",
      "id": "node/2462424270",
      "properties": {
        "@id": "node/2462424270",
        "amenity": "hospital",
        "name": "Gerencia SERMAS"
      },
      "geometry": {
        "type": "Point",
        "coordinates": [
          -3.7267737,
          40.4681204
        ]
      }
    },
    {
      "type": "Feature",
      "id": "node/2462938317",
      "properties": {
        "@id": "node/2462938317",
        "addr:city": "Madrid",
        "addr:housenumber": "20",
        "addr:postcode": "28046",
        "addr:street": "Paseo de la Castellana",
        "amenity": "hospital",
        "name": "Clínica Baviera",
        "phone": "+34 917 82 03 60",
        "website": "http://www.clinicabaviera.com/"
      },
      "geometry": {
        "type": "Point",
        "coordinates": [
          -3.6889198,
          40.4290209
        ]
      }
    },
    {
      "type": "Feature",
      "id": "node/2855424538",
      "properties": {
        "@id": "node/2855424538",
        "addr:city": "Madrid",
        "addr:housenumber": "30",
        "addr:postcode": "28007",
        "addr:street": "Calle de Téllez",
        "amenity": "hospital",
        "name": "Centro Médico Maestranza"
      },
      "geometry": {
        "type": "Point",
        "coordinates": [
          -3.6785493,
          40.4015992
        ]
      }
    },
    {
      "type": "Feature",
      "id": "node/2864026501",
      "properties": {
        "@id": "node/2864026501",
        "amenity": "hospital",
        "name": "Centro médico Costa Rica",
        "operator": "Sanitas"
      },
      "geometry": {
        "type": "Point",
        "coordinates": [
          -3.6689294,
          40.4592666
        ]
      }
    },
    {
      "type": "Feature",
      "id": "node/2955747926",
      "properties": {
        "@id": "node/2955747926",
        "addr:housenumber": "9",
        "amenity": "hospital",
        "contact:fax": "915 495 474",
        "contact:phone": "915 441 131",
        "entrance": "yes",
        "name": "Instituto Anatómico Forense",
        "source": "survey"
      },
      "geometry": {
        "type": "Point",
        "coordinates": [
          -3.7229335,
          40.4437878
        ]
      }
    },
    {
      "type": "Feature",
      "id": "node/3124057770",
      "properties": {
        "@id": "node/3124057770",
        "addr:city": "Madrid",
        "addr:housenumber": "113",
        "addr:postcode": "28011",
        "addr:street": "Paseo de Extremadura",
        "amenity": "hospital",
        "name": "Centro de Salud Puerta del Ángel",
        "opening_hours": "Mo-Fr 09:00-21:00; PH off",
        "phone": "+34 914 797 414"
      },
      "geometry": {
        "type": "Point",
        "coordinates": [
          -3.7354979,
          40.4108773
        ]
      }
    },
    {
      "type": "Feature",
      "id": "node/3489234866",
      "properties": {
        "@id": "node/3489234866",
        "addr:city": "Madrid",
        "addr:housenumber": "9",
        "addr:postcode": "28051",
        "addr:street": "Calle Pilar de Madariaga Rojo",
        "amenity": "hospital",
        "emergency": "yes",
        "name": "Fisioterapia Valhalla",
        "phone": "+34660600471"
      },
      "geometry": {
        "type": "Point",
        "coordinates": [
          -3.5886287,
          40.3657936
        ]
      }
    },
    {
      "type": "Feature",
      "id": "node/4298723150",
      "properties": {
        "@id": "node/4298723150",
        "addr:city": "Madrid",
        "addr:housenumber": "4",
        "addr:postcode": "28018",
        "addr:street": "Calle de León Felipe",
        "amenity": "hospital",
        "emergency": "yes",
        "name": "Centro de Salud Federica Montseny"
      },
      "geometry": {
        "type": "Point",
        "coordinates": [
          -3.6394153,
          40.3876388
        ]
      }
    },
    {
      "type": "Feature",
      "id": "node/4463399703",
      "properties": {
        "@id": "node/4463399703",
        "addr:housenumber": "14",
        "addr:street": "Calle de Santa Hortensia",
        "amenity": "hospital",
        "name": "Centro de Salud Santa Hortensia"
      },
      "geometry": {
        "type": "Point",
        "coordinates": [
          -3.669899,
          40.4452425
        ]
      }
    }
  ]
}