{
  "type": "FeatureCollection",
  "generator": "overpass-turbo",
  "copyright": "The data included in this document is from www.openstreetmap.org. The data is made available under ODbL.",
  "timestamp": "2017-02-07T16:25:02Z",
  "features": [
    {
      "type": "Feature",
      "id": "way/71233328",
      "properties": {
        "@id": "way/71233328",
        "amenity": "veterinary",
        "building": "public",
        "name": "Hospital Clínico Veterinario",
        "toilets:wheelchair": "yes",
        "wheelchair": "yes"
      },
      "geometry": {
        "type": "Polygon",
        "coordinates": [
          [
            [
              -3.7410363,
              40.4494604
            ],
            [
              -3.7409628,
              40.4493302
            ],
            [
              -3.7407998,
              40.4493862
            ],
            [
              -3.7407743,
              40.4493418
            ],
            [
              -3.7409367,
              40.4492874
            ],
            [
              -3.740865,
              40.4491581
            ],
            [
              -3.7407009,
              40.4492123
            ],
            [
              -3.7406754,
              40.4491682
            ],
            [
              -3.7408396,
              40.4491134
            ],
            [
              -3.740765,
              40.448984
            ],
            [
              -3.7406008,
              40.449039
            ],
            [
              -3.7405763,
              40.4489939
            ],
            [
              -3.7407403,
              40.4489399
            ],
            [
              -3.7406678,
              40.4488116
            ],
            [
              -3.7405029,
              40.448865
            ],
            [
              -3.7404781,
              40.448821
            ],
            [
              -3.7406415,
              40.4487675
            ],
            [
              -3.740568,
              40.4486376
            ],
            [
              -3.7404046,
              40.4486915
            ],
            [
              -3.7403798,
              40.4486477
            ],
            [
              -3.7405433,
              40.4485937
            ],
            [
              -3.7404697,
              40.448465
            ],
            [
              -3.7403065,
              40.4485181
            ],
            [
              -3.7402922,
              40.4484941
            ],
            [
              -3.7401913,
              40.4485271
            ],
            [
              -3.7401852,
              40.4485197
            ],
            [
              -3.7400894,
              40.4485422
            ],
            [
              -3.740098,
              40.4485581
            ],
            [
              -3.7399966,
              40.4485922
            ],
            [
              -3.7400109,
              40.4486167
            ],
            [
              -3.7399447,
              40.4486379
            ],
            [
              -3.7405258,
              40.4496588
            ],
            [
              -3.7405919,
              40.4496359
            ],
            [
              -3.7406072,
              40.4496622
            ],
            [
              -3.7403112,
              40.4497398
            ],
            [
              -3.74003,
              40.4498107
            ],
            [
              -3.7400576,
              40.4498488
            ],
            [
              -3.7400969,
              40.4498906
            ],
            [
              -3.7401312,
              40.4499213
            ],
            [
              -3.7401633,
              40.4499461
            ],
            [
              -3.7401979,
              40.4499698
            ],
            [
              -3.7402342,
              40.44999
            ],
            [
              -3.7403145,
              40.4499646
            ],
            [
              -3.7403303,
              40.4499886
            ],
            [
              -3.7407195,
              40.4498571
            ],
            [
              -3.7408065,
              40.4500098
            ],
            [
              -3.7408229,
              40.4500037
            ],
            [
              -3.7408392,
              40.4500369
            ],
            [
              -3.7408766,
              40.4500245
            ],
            [
              -3.7409143,
              40.4500057
            ],
            [
              -3.7409128,
              40.4500006
            ],
            [
              -3.7409505,
              40.4499816
            ],
            [
              -3.7409894,
              40.4499578
            ],
            [
              -3.7410305,
              40.4499277
            ],
            [
              -3.7410555,
              40.4499056
            ],
            [
              -3.7410815,
              40.4498792
            ],
            [
              -3.7410753,
              40.4498684
            ],
            [
              -3.7411141,
              40.4498556
            ],
            [
              -3.7410993,
              40.4498312
            ],
            [
              -3.7410608,
              40.4498441
            ],
            [
              -3.7408723,
              40.449514
            ],
            [
              -3.7410363,
              40.4494604
            ]
          ]
        ]
      }
    },
    {
      "type": "Feature",
      "id": "node/143098187",
      "properties": {
        "@id": "node/143098187",
        "amenity": "veterinary",
        "created_by": "JOSM"
      },
      "geometry": {
        "type": "Point",
        "coordinates": [
          -3.6854466,
          40.4850146
        ]
      }
    },
    {
      "type": "Feature",
      "id": "node/178820970",
      "properties": {
        "@id": "node/178820970",
        "amenity": "veterinary",
        "created_by": "JOSM"
      },
      "geometry": {
        "type": "Point",
        "coordinates": [
          -3.7094162,
          40.415091
        ]
      }
    },
    {
      "type": "Feature",
      "id": "node/353130929",
      "properties": {
        "@id": "node/353130929",
        "amenity": "veterinary",
        "name": "Mon Can"
      },
      "geometry": {
        "type": "Point",
        "coordinates": [
          -3.6986214,
          40.5050228
        ]
      }
    },
    {
      "type": "Feature",
      "id": "node/622424094",
      "properties": {
        "@id": "node/622424094",
        "amenity": "veterinary"
      },
      "geometry": {
        "type": "Point",
        "coordinates": [
          -3.7512576,
          40.4008986
        ]
      }
    },
    {
      "type": "Feature",
      "id": "node/1337087170",
      "properties": {
        "@id": "node/1337087170",
        "addr:housenumber": "262",
        "addr:street": "Avinguda de Vallcarca",
        "amenity": "veterinary",
        "contact:phone": "932111097",
        "name": "Consultori Veterinari Amazonas"
      },
      "geometry": {
        "type": "Point",
        "coordinates": [
          2.1407432,
          41.4205916
        ]
      }
    },
    {
      "type": "Feature",
      "id": "node/1377225823",
      "properties": {
        "@id": "node/1377225823",
        "amenity": "veterinary",
        "contact:phone": "932130662",
        "description": "Urgències 654358919",
        "name": "Centre Veterinari JOanic",
        "opening_hours": "Mo-Sa 10:30-13:30,17:00-20:30"
      },
      "geometry": {
        "type": "Point",
        "coordinates": [
          2.1611846,
          41.4053182
        ]
      }
    },
    {
      "type": "Feature",
      "id": "node/1377225880",
      "properties": {
        "@id": "node/1377225880",
        "amenity": "veterinary",
        "name": "Bestioles de Gràcia"
      },
      "geometry": {
        "type": "Point",
        "coordinates": [
          2.1596464,
          41.4026911
        ]
      }
    },
    {
      "type": "Feature",
      "id": "node/1436033393",
      "properties": {
        "@id": "node/1436033393",
        "addr:housenumber": "46",
        "addr:street": "Calle del Conde Duque",
        "amenity": "veterinary",
        "name": "Clínica veterinaria Conde Duque"
      },
      "geometry": {
        "type": "Point",
        "coordinates": [
          -3.7089755,
          40.4293999
        ]
      }
    },
    {
      "type": "Feature",
      "id": "node/1607113033",
      "properties": {
        "@id": "node/1607113033",
        "amenity": "veterinary",
        "name": "Centro Veterinario Peñascal"
      },
      "geometry": {
        "type": "Point",
        "coordinates": [
          -3.6674559,
          40.4238644
        ]
      }
    },
    {
      "type": "Feature",
      "id": "node/1647287311",
      "properties": {
        "@id": "node/1647287311",
        "amenity": "veterinary"
      },
      "geometry": {
        "type": "Point",
        "coordinates": [
          -3.7745269,
          40.3993487
        ]
      }
    },
    {
      "type": "Feature",
      "id": "node/1647287370",
      "properties": {
        "@id": "node/1647287370",
        "amenity": "veterinary"
      },
      "geometry": {
        "type": "Point",
        "coordinates": [
          -3.7606633,
          40.4022143
        ]
      }
    },
    {
      "type": "Feature",
      "id": "node/1732744227",
      "properties": {
        "@id": "node/1732744227",
        "amenity": "veterinary"
      },
      "geometry": {
        "type": "Point",
        "coordinates": [
          -3.655028,
          40.4933543
        ]
      }
    },
    {
      "type": "Feature",
      "id": "node/1880205783",
      "properties": {
        "@id": "node/1880205783",
        "amenity": "veterinary",
        "name": "Hospital Veterinari Riera Alta",
        "website": "http://hvrieraalta.es"
      },
      "geometry": {
        "type": "Point",
        "coordinates": [
          2.1661207,
          41.3803867
        ]
      }
    },
    {
      "type": "Feature",
      "id": "node/1897083965",
      "properties": {
        "@id": "node/1897083965",
        "amenity": "veterinary",
        "name": "La Clínica Veterinaria"
      },
      "geometry": {
        "type": "Point",
        "coordinates": [
          -3.6234057,
          40.3723278
        ]
      }
    },
    {
      "type": "Feature",
      "id": "node/1947229273",
      "properties": {
        "@id": "node/1947229273",
        "amenity": "veterinary",
        "name": "veterinario"
      },
      "geometry": {
        "type": "Point",
        "coordinates": [
          -3.722801,
          40.4711079
        ]
      }
    },
    {
      "type": "Feature",
      "id": "node/2004749665",
      "properties": {
        "@id": "node/2004749665",
        "amenity": "veterinary",
        "shop": "pet"
      },
      "geometry": {
        "type": "Point",
        "coordinates": [
          -3.757437,
          40.3921922
        ]
      }
    },
    {
      "type": "Feature",
      "id": "node/2047995937",
      "properties": {
        "@id": "node/2047995937",
        "amenity": "veterinary"
      },
      "geometry": {
        "type": "Point",
        "coordinates": [
          -3.7069073,
          40.3701833
        ]
      }
    },
    {
      "type": "Feature",
      "id": "node/2048505129",
      "properties": {
        "@id": "node/2048505129",
        "amenity": "veterinary",
        "name": "Mundo Animal",
        "opening_hours": "Mo-Sa 10:30-13:30; Mo-Fr 17:00-20:30",
        "phone": "+34914595446"
      },
      "geometry": {
        "type": "Point",
        "coordinates": [
          -3.713454,
          40.4565562
        ]
      }
    },
    {
      "type": "Feature",
      "id": "node/2156454459",
      "properties": {
        "@id": "node/2156454459",
        "amenity": "veterinary",
        "name": "Clínica Veterinaria El Bosque"
      },
      "geometry": {
        "type": "Point",
        "coordinates": [
          -3.7522492,
          40.3898612
        ]
      }
    },
    {
      "type": "Feature",
      "id": "node/2304484551",
      "properties": {
        "@id": "node/2304484551",
        "amenity": "veterinary"
      },
      "geometry": {
        "type": "Point",
        "coordinates": [
          -3.7424535,
          40.3945784
        ]
      }
    },
    {
      "type": "Feature",
      "id": "node/2339200395",
      "properties": {
        "@id": "node/2339200395",
        "addr:city": "Madrid",
        "addr:housenumber": "51",
        "addr:postcode": "28017",
        "addr:street": "Calle de Ricardo Ortiz",
        "amenity": "veterinary",
        "name": "Animalia",
        "phone": "+34 917131251"
      },
      "geometry": {
        "type": "Point",
        "coordinates": [
          -3.6576353,
          40.4250876
        ]
      }
    },
    {
      "type": "Feature",
      "id": "node/2475150017",
      "properties": {
        "@id": "node/2475150017",
        "amenity": "veterinary",
        "name": "Puerta De Toledo"
      },
      "geometry": {
        "type": "Point",
        "coordinates": [
          -3.7129242,
          40.40813
        ]
      }
    },
    {
      "type": "Feature",
      "id": "node/2568714102",
      "properties": {
        "@id": "node/2568714102",
        "amenity": "veterinary"
      },
      "geometry": {
        "type": "Point",
        "coordinates": [
          -3.7071646,
          40.3463449
        ]
      }
    },
    {
      "type": "Feature",
      "id": "node/2587660423",
      "properties": {
        "@id": "node/2587660423",
        "amenity": "veterinary"
      },
      "geometry": {
        "type": "Point",
        "coordinates": [
          -3.708192,
          40.4053226
        ]
      }
    },
    {
      "type": "Feature",
      "id": "node/2630602814",
      "properties": {
        "@id": "node/2630602814",
        "addr:city": "Madrid",
        "addr:housename": "Clínica veterinaria Jura Real",
        "addr:housenumber": "28",
        "addr:postcode": "28019",
        "addr:street": "Calle del Marques de Jura Real",
        "amenity": "veterinary",
        "name": "Clínica Veterinaria Jura Real",
        "phone": "914604680"
      },
      "geometry": {
        "type": "Point",
        "coordinates": [
          -3.7116616,
          40.3910007
        ]
      }
    },
    {
      "type": "Feature",
      "id": "node/2640019772",
      "properties": {
        "@id": "node/2640019772",
        "amenity": "veterinary"
      },
      "geometry": {
        "type": "Point",
        "coordinates": [
          -3.6174506,
          40.4268885
        ]
      }
    },
    {
      "type": "Feature",
      "id": "node/2661750732",
      "properties": {
        "@id": "node/2661750732",
        "amenity": "veterinary",
        "name": "Clínica veterinaria Nuevo Zoo"
      },
      "geometry": {
        "type": "Point",
        "coordinates": [
          -3.7069251,
          40.4355396
        ]
      }
    },
    {
      "type": "Feature",
      "id": "node/2799017160",
      "properties": {
        "@id": "node/2799017160",
        "amenity": "veterinary",
        "name": "Clínica Veterinaria El Ensanche"
      },
      "geometry": {
        "type": "Point",
        "coordinates": [
          -3.5956514,
          40.3613507
        ]
      }
    },
    {
      "type": "Feature",
      "id": "node/2828688273",
      "properties": {
        "@id": "node/2828688273",
        "addr:city": "Madrid",
        "addr:housenumber": "9",
        "addr:postcode": "28032",
        "addr:street": "Plaza de Rosa Chacel",
        "amenity": "veterinary",
        "name": "Centro Veterinario Valdebernardo"
      },
      "geometry": {
        "type": "Point",
        "coordinates": [
          -3.6227098,
          40.4021723
        ]
      }
    },
    {
      "type": "Feature",
      "id": "node/2868724184",
      "properties": {
        "@id": "node/2868724184",
        "amenity": "veterinary",
        "name": "Clínica Veterinaria Puerta de Hierro"
      },
      "geometry": {
        "type": "Point",
        "coordinates": [
          -3.7225668,
          40.4641804
        ]
      }
    },
    {
      "type": "Feature",
      "id": "node/2870522332",
      "properties": {
        "@id": "node/2870522332",
        "addr:housenumber": "51",
        "addr:street": "Calle de Villaamil",
        "amenity": "veterinary",
        "name": "Centro Veterinario Animanía",
        "phone": "+34-913113625",
        "website": "http://www.animaniamadrid.com/"
      },
      "geometry": {
        "type": "Point",
        "coordinates": [
          -3.7078926,
          40.4601693
        ]
      }
    },
    {
      "type": "Feature",
      "id": "node/2870522358",
      "properties": {
        "@id": "node/2870522358",
        "amenity": "veterinary",
        "name": "Clínica Veterinaria"
      },
      "geometry": {
        "type": "Point",
        "coordinates": [
          -3.7045646,
          40.4589062
        ]
      }
    },
    {
      "type": "Feature",
      "id": "node/2916114149",
      "properties": {
        "@id": "node/2916114149",
        "amenity": "veterinary",
        "email": "info@cveboli.es",
        "name": "Éboli",
        "opening_hours": "Mo-Fr 10:00-14:00, 17:00-20:00; Sa 10:00-14:00; PH off",
        "phone": "+34 91 750 2792",
        "website": "http://cveboli.es/"
      },
      "geometry": {
        "type": "Point",
        "coordinates": [
          -3.6553462,
          40.4864807
        ]
      }
    },
    {
      "type": "Feature",
      "id": "node/2941723774",
      "properties": {
        "@id": "node/2941723774",
        "amenity": "veterinary",
        "name": "Pets Madrid",
        "wheelchair": "yes"
      },
      "geometry": {
        "type": "Point",
        "coordinates": [
          -3.7011378,
          40.4618371
        ]
      }
    },
    {
      "type": "Feature",
      "id": "node/2943834915",
      "properties": {
        "@id": "node/2943834915",
        "addr:city": "Madrid",
        "addr:housenumber": "26",
        "addr:postcode": "28030",
        "addr:street": "Calle de la Marroquina",
        "amenity": "veterinary",
        "name": "La clínica veterinaria"
      },
      "geometry": {
        "type": "Point",
        "coordinates": [
          -3.6489245,
          40.4074918
        ]
      }
    },
    {
      "type": "Feature",
      "id": "node/2948243145",
      "properties": {
        "@id": "node/2948243145",
        "addr:city": "Madrid",
        "addr:housenumber": "63",
        "addr:postcode": "28030",
        "addr:street": "Calle del Camino de los Vinateros",
        "amenity": "veterinary",
        "name": "Clínica Veterinaria Vinateros"
      },
      "geometry": {
        "type": "Point",
        "coordinates": [
          -3.6518262,
          40.4103929
        ]
      }
    },
    {
      "type": "Feature",
      "id": "node/2957269477",
      "properties": {
        "@id": "node/2957269477",
        "amenity": "veterinary",
        "name": "Openvet"
      },
      "geometry": {
        "type": "Point",
        "coordinates": [
          -3.7280803,
          40.4724262
        ]
      }
    },
    {
      "type": "Feature",
      "id": "node/2978243304",
      "properties": {
        "@id": "node/2978243304",
        "amenity": "veterinary"
      },
      "geometry": {
        "type": "Point",
        "coordinates": [
          -3.7094054,
          40.4639808
        ]
      }
    },
    {
      "type": "Feature",
      "id": "node/3006305766",
      "properties": {
        "@id": "node/3006305766",
        "addr:housenumber": "16",
        "addr:postcode": "08024",
        "addr:street": "Carrer de Praga",
        "amenity": "veterinary",
        "name": "Centre Veterinari Saluki"
      },
      "geometry": {
        "type": "Point",
        "coordinates": [
          2.1638776,
          41.4130772
        ]
      }
    },
    {
      "type": "Feature",
      "id": "node/3302333281",
      "properties": {
        "@id": "node/3302333281",
        "addr:city": "Madrid",
        "addr:housenumber": "22",
        "addr:postcode": "28045",
        "addr:street": "Calle del General Lacy",
        "amenity": "veterinary",
        "name": "Áncora Veterinarios",
        "website": "http://www.ancoraveterinarios.es/"
      },
      "geometry": {
        "type": "Point",
        "coordinates": [
          -3.690922,
          40.4033485
        ]
      }
    },
    {
      "type": "Feature",
      "id": "node/3304892543",
      "properties": {
        "@id": "node/3304892543",
        "addr:street": "Calle de Boltaña",
        "amenity": "veterinary",
        "name": "Veterinaria Fauna"
      },
      "geometry": {
        "type": "Point",
        "coordinates": [
          -3.6105339,
          40.4468656
        ]
      }
    },
    {
      "type": "Feature",
      "id": "node/3428476977",
      "properties": {
        "@id": "node/3428476977",
        "amenity": "veterinary"
      },
      "geometry": {
        "type": "Point",
        "coordinates": [
          -3.6985888,
          40.4340623
        ]
      }
    },
    {
      "type": "Feature",
      "id": "node/3507608584",
      "properties": {
        "@id": "node/3507608584",
        "addr:city": "Madrid",
        "addr:housenumber": "64",
        "addr:postcode": "28035",
        "addr:street": "Avenida Juan Andrés",
        "amenity": "veterinary",
        "name": "Saconia",
        "phone": "+34 913 73 64 94"
      },
      "geometry": {
        "type": "Point",
        "coordinates": [
          -3.7229188,
          40.4706376
        ]
      }
    },
    {
      "type": "Feature",
      "id": "node/3507625809",
      "properties": {
        "@id": "node/3507625809",
        "addr:housenumber": "3",
        "addr:street": "Calle Islas Marshall",
        "amenity": "veterinary",
        "name": "Peñagrande"
      },
      "geometry": {
        "type": "Point",
        "coordinates": [
          -3.7283596,
          40.4748737
        ]
      }
    },
    {
      "type": "Feature",
      "id": "node/3611166003",
      "properties": {
        "@id": "node/3611166003",
        "amenity": "veterinary",
        "name": "Centro Veterinario Vets and Company"
      },
      "geometry": {
        "type": "Point",
        "coordinates": [
          -3.6685259,
          40.4525815
        ]
      }
    },
    {
      "type": "Feature",
      "id": "node/3770276473",
      "properties": {
        "@id": "node/3770276473",
        "addr:housenumber": "8",
        "addr:street": "Calle de Molina",
        "amenity": "veterinary",
        "name": "Clínica veterinaria ANIMANSIÓN",
        "wheelchair": "no"
      },
      "geometry": {
        "type": "Point",
        "coordinates": [
          -3.6982449,
          40.4694374
        ]
      }
    },
    {
      "type": "Feature",
      "id": "node/3770612119",
      "properties": {
        "@id": "node/3770612119",
        "addr:city": "Madrid",
        "addr:housenumber": "4",
        "addr:postcode": "28029",
        "addr:street": "Calle de las Aguileñas",
        "amenity": "veterinary",
        "contact:phone": "+34 917 33 36 95",
        "contact:website": "http://clinicaveterinariamadrid.es/",
        "wheelchair": "no",
        "wheelchair:description": "Escalón alto"
      },
      "geometry": {
        "type": "Point",
        "coordinates": [
          -3.6935719,
          40.4657388
        ]
      }
    },
    {
      "type": "Feature",
      "id": "node/4014947570",
      "properties": {
        "@id": "node/4014947570",
        "amenity": "veterinary",
        "name": "La Caseta"
      },
      "geometry": {
        "type": "Point",
        "coordinates": [
          -3.6681396,
          40.4782387
        ]
      }
    },
    {
      "type": "Feature",
      "id": "node/4185276786",
      "properties": {
        "@id": "node/4185276786",
        "addr:city": "Madrid",
        "addr:housenumber": "48",
        "addr:postcode": "28004",
        "addr:street": "Calle de Valverde",
        "amenity": "veterinary",
        "contact:phone": "+34 915325689",
        "contact:website": "http://clinicaveterinariaarcoiris.es/la-clinica/",
        "name": "Arco Iris"
      },
      "geometry": {
        "type": "Point",
        "coordinates": [
          -3.7014055,
          40.4237852
        ]
      }
    },
    {
      "type": "Feature",
      "id": "node/4242067447",
      "properties": {
        "@id": "node/4242067447",
        "amenity": "veterinary",
        "source": "survey"
      },
      "geometry": {
        "type": "Point",
        "coordinates": [
          -3.7480014,
          40.3812311
        ]
      }
    },
    {
      "type": "Feature",
      "id": "node/4254662799",
      "properties": {
        "@id": "node/4254662799",
        "amenity": "veterinary"
      },
      "geometry": {
        "type": "Point",
        "coordinates": [
          2.1853792,
          41.3934748
        ]
      }
    },
    {
      "type": "Feature",
      "id": "node/4273758138",
      "properties": {
        "@id": "node/4273758138",
        "amenity": "veterinary"
      },
      "geometry": {
        "type": "Point",
        "coordinates": [
          -3.7027822,
          40.4419072
        ]
      }
    },
    {
      "type": "Feature",
      "id": "node/4350349092",
      "properties": {
        "@id": "node/4350349092",
        "amenity": "veterinary",
        "name": "Veterinaria Horta"
      },
      "geometry": {
        "type": "Point",
        "coordinates": [
          2.1556342,
          41.4253434
        ]
      }
    },
    {
      "type": "Feature",
      "id": "node/4392737268",
      "properties": {
        "@id": "node/4392737268",
        "addr:city": "Madrid",
        "addr:housenumber": "58",
        "addr:postcode": "28015",
        "addr:street": "Calle de Guzmán el Bueno",
        "amenity": "veterinary",
        "name": "Clínica Veterinaria Guzmán el Bueno",
        "operator": "Peñagrande",
        "website": "www.clinicasveterinarias.net"
      },
      "geometry": {
        "type": "Point",
        "coordinates": [
          -3.7128939,
          40.4364785
        ]
      }
    },
    {
      "type": "Feature",
      "id": "node/4406242081",
      "properties": {
        "@id": "node/4406242081",
        "addr:city": "Madrid",
        "addr:housenumber": "7",
        "addr:postcode": "28019",
        "addr:street": "Calle de la Vía",
        "amenity": "veterinary",
        "name": "Centro Veterinario Huellas SLP",
        "opening_hours": "L a V 10:30-13:30 y 17:30-20:30; S 10:30-13:30 hrs"
      },
      "geometry": {
        "type": "Point",
        "coordinates": [
          -3.7220025,
          40.3868868
        ]
      }
    },
    {
      "type": "Feature",
      "id": "node/4520491590",
      "properties": {
        "@id": "node/4520491590",
        "amenity": "veterinary",
        "name": "Clínica Veterinaria Quevedog",
        "name:es": "Clínica Veterinaria Quevedog",
        "opening_hours": "Mo-Fr 10:00-14:00, 17:00-20:30; Sa 10:00-14:00",
        "phone": "+34 914455236",
        "website": "http://www.quevedog.es"
      },
      "geometry": {
        "type": "Point",
        "coordinates": [
          -3.7076499,
          40.4351276
        ]
      }
    },
    {
      "type": "Feature",
      "id": "node/4568493290",
      "properties": {
        "@id": "node/4568493290",
        "amenity": "veterinary",
        "name": "Clínica veterinaria Chamberí",
        "name:es": "Clínica veterinaria Chamberí",
        "opening_hours": "Mo-Fr 10:30-14:00, 16:30-20:00; Sa 11:00-14:00"
      },
      "geometry": {
        "type": "Point",
        "coordinates": [
          -3.7022945,
          40.4360511
        ]
      }
    },
    {
      "type": "Feature",
      "id": "node/4592770394",
      "properties": {
        "@id": "node/4592770394",
        "addr:housenumber": "24",
        "addr:street": "Calle de Martínez Villergas",
        "amenity": "veterinary",
        "name": "Clínica Veterinaria \"Don Canito\"",
        "name:es": "Clínica Veterinaria \"Don Canito\""
      },
      "geometry": {
        "type": "Point",
        "coordinates": [
          -3.6539086,
          40.4410519
        ]
      }
    },
    {
      "type": "Feature",
      "id": "node/4596488302",
      "properties": {
        "@id": "node/4596488302",
        "amenity": "veterinary",
        "name": "El Perro Verde",
        "name:es": "El Perro Verde"
      },
      "geometry": {
        "type": "Point",
        "coordinates": [
          -3.6517517,
          40.4366999
        ]
      }
    },
    {
      "type": "Feature",
      "id": "node/4623660392",
      "properties": {
        "@id": "node/4623660392",
        "amenity": "veterinary",
        "name": "José del Hierro",
        "name:es": "José del Hierro"
      },
      "geometry": {
        "type": "Point",
        "coordinates": [
          -3.6437316,
          40.4405086
        ]
      }
    }
  ]
}